R Notebook
…
[[2]]
# A tibble: 116 x 11
      `` Nombre    Pas     `Fecha de nacim Edad  `Creado por` `Fecha de nombr
   <int> <chr>     <chr>    <chr>            <chr> <chr>        <chr>           
 1     1 Vinko Pu Bosnia  08/09/1945       76a Juan Pablo  26/11/1994      
 2     2 Polycarp Tanzani 05/08/1944       78a Juan Pablo  21/02/1998      
 3     3 Christop Austria 22/01/1945       77a Juan Pablo  21/02/1998      
 4     4 Crescenz Italia 02/06/1943       79a Juan Pablo  21/02/2001      
 5     5 scar An Hondura 29/12/1942       79a Juan Pablo  21/02/2001      
 6     6 Juan Lui PerPer 28/12/1943       78a Juan Pablo  21/02/2001      
 7     7 Peter Ko GhanaG 11/10/1948       73a Juan Pablo  21/10/2003      
 8     8 Josip Bo Croacia 29/03/1949       73a Juan Pablo  21/10/2003      
 9     9 Philippe Francia  17/10/1950       71a Juan Pablo  21/10/2003      
10    10 Pter Er Hungra 25/06/1952       70a Juan Pablo  21/10/2003      
#  with 106 more rows, and 4 more variables: Titulus <chr>, Cargo <chr>,
#   Fotografa <lgl>, Escudo <lgl>

[[3]]
# A tibble: 91 x 11
      `` Nombre           Nacionalidad    `Fecha de nacimie Edad   `Creado por`
   <int> <chr>            <chr>           <chr>              <chr>  <chr>       
 1     1 Santos Abril y  EspaaEspaa   21/09/1935         86a Benedicto X
 2     2 Geraldo Majella BrasilBrasil   19/10/1933         88a Juan Pablo 
 3     3 Angelo Amato, S ItaliaItalia   08/06/1938         84a Benedicto X
 4     4 Ennio Antonelli  ItaliaItalia   18/11/1936         85a Juan Pablo 
 5     5 Francis Arinze   NigeriaNigeria 01/11/1932         89a Juan Pablo 
 6     6 Felipe Arizmend MxicoMxico    1/5/1940           82a Francisco   
 7     7 Raymundo Damasc BrasilBrasil   15/02/1937         85a Benedicto X
 8     8 Audrys Juozas B LituaniaLitua 01/02/1937         85a Juan Pablo 
 9     9 Lorenzo Baldiss ItaliaItalia   29/09/1940         81a Francisco   
10    10 Gualtiero Basse ItaliaItalia   07/04/1942         80a Francisco   
#  with 81 more rows, and 5 more variables: Fecha de nombramiento <chr>,
#   Titulus <chr>, Cargo <chr>, Fotografa <lgl>, Escudo <lgl>

[[4]]
# A tibble: 92 x 4
   Pas                             Cardenaleselector `Cardenalesno elec Total
   <chr>                                         <int>               <int> <int>
 1 NigeriaNigeria                                   1                   2     3
 2 AngolaAngola                                     0                   2     2
 3 Burkina FasoBurkina Faso                         1                   0     1
 4 Cabo VerdeCabo Verde                             1                   0     1
 5 Repblica CentroafricanaRepbl                  1                   0     1
 6 Repblica Democrtica del Congo                  1                   0     1
 7 Costa de MarfilCosta de Marfil                   1                   0     1
 8 EtiopaEtiopa                                   1                   0     1
 9 GhanaGhana                                       1                   0     1
10 GuineaGuinea                                     1                   0     1
#  with 82 more rows

[[5]]
# A tibble: 23 x 4
   ``                        Electores `No electores` Total
   <chr>                         <int>          <int> <int>
 1 febrero de 1983                   0              3     3
 2 mayo de 1985                      0              3     3
 3 junio de 1991                     0              3     3
 4 noviembre de 1994                 1              4     5
 5 febrero de 1998                   2              5     7
 6 febrero de 2001                   3             10    13
 7 octubre de 2003                   5             11    16
 8 Creados por Juan Pablo II        11             39    50
 9 marzo de 2006                     3              5     8
10 noviembre de 2007                10              7    17
#  with 13 more rows
[[6]]
# A tibble: 5 x 9
  `Creados por`            `Cardenales obis `Cardenales obis `Cardenales pres
  <chr>                    <chr>             <chr>             <chr>            
1 Creados por              Total             Electores         Total            
2 Juan Pablo II16 de octu 5                 1                 44               
3 Benedicto XVI19 de abri 4                 3                 59               
4 Francisco13 de marzo de 3                 2                 68               
5 Total                    12                6                 171              
#  with 5 more variables: Cardenales presbteros <chr>,
#   Cardenales diconos <chr>, Cardenales diconos.1 <chr>, Total <chr>,
#   Total.1 <chr>

[[7]]
# A tibble: 30 x 7
   Orden   Siglas Electores Electores     `No electores` `No electores`    Total
   <chr>   <chr>      <int> <chr>                  <int> <chr>             <int>
 1 Salesi SDB            5 "Cristbal L              5 "Angelo Amato\nT    10
 2 Jesuit SJ             4 "Pedro Barre              3 "Julius Riyadi D     7
 3 Capuch OFM C         3 "Sen Patric              1 "Raniero Cantala     4
 4 Domini OP             2 "Dominik Duk              0 ""                    2
 5 Franci OFM            1 "Leonardo Ul              1 "Wilfrid Fox Nap     2
 6 Espiri CSSp           1 "Dieudonn N              1 "Maurice Piat"        2
 7 Pales  CM             1 "Berhaneyesu              1 "Franc Rod"          2
 8 Padres M. Af         1 "Richard Kuu              1 "Michael Louis F     2
 9 Claret CMF            0 ""                         2 "Aquilino Bocos      2
10 Congre CSC            1 "Patrick DR              0 ""                    1
#  with 20 more rows
…
[[9]]
# A tibble: 188 x 6
   ``      ``                               Pas  Electores `No electores` Total
   <chr>   <chr>                            <lgl>     <int>          <int> <int>
 1 12/03/ Cardenales durante el Cnclave  NA          117             90   207
 2 13/03/ Eleccin papal del cardenal Jor NA          116             90   206
 3 13/03/ Prdida de la condicin de elec NA          115             91   206
 4 18/03/ 80 aniversario del cardenal Se NA          114             92   206
 5 28/03/ 80 aniversario del cardenal Ju NA          113             93   206
 6 10/04/ Fallecimiento del cardenal Lore NA          113             92   205
 7 04/06/ 80 aniversario del cardenal Go NA          112             93   205
 8 05/06/ Fallecimiento del cardenal Stan NA          112             92   204
 9 19/07/ Fallecimiento del cardenal Simo NA          112             91   203
10 28/07/ Fallecimiento del cardenal Ersi NA          112             90   202
#  with 178 more rows
…
